// Jest Snapshot v1, https://goo.gl/fbAQLP

exports[`<EmailPreview/> should render correctly 1`] = `
<div>
  <div>
    <h2>
      Message Name:
    </h2>
    <span>
      Email name
    </span>
  </div>
  <div>
    <h2>
      Subject Line:
    </h2>
    <div>
      <span
        key="0"
      >
        Subject 1
      </span>
      <span
        key="1"
      >
        Subject 2
      </span>
    </div>
  </div>
  <EmailPreviewContent
    content={
      Object {
        "html": "<h1>Some HTML</h1>",
        "text": "Some text",
      }
    }
  />
</div>
`;
