// Jest Snapshot v1, https://goo.gl/fbAQLP

exports[`<EmailApp/> should render correctly 1`] = `
<BrowserRouter>
  <Switch>
    <Route
      component={[Function]}
      exact={true}
      path="/"
    />
    <Route
      component={[Function]}
      path="/email/:id"
    />
  </Switch>
</BrowserRouter>
`;
